[ {
  "uid" : "23301d9a69e9d149",
  "name" : "Positive value valid in Portuguese",
  "time" : {
    "start" : 1606272935425,
    "stop" : 1606272936300,
    "duration" : 875
  },
  "status" : "passed",
  "severity" : "normal"
}, {
  "uid" : "5eaa014ae3b9042c",
  "name" : "Negative value valid in Portuguese",
  "time" : {
    "start" : 1606272936304,
    "stop" : 1606272937178,
    "duration" : 874
  },
  "status" : "passed",
  "severity" : "normal"
}, {
  "uid" : "c8add541bcb5fa17",
  "name" : "Return is a JSON",
  "time" : {
    "start" : 1606272934703,
    "stop" : 1606272935421,
    "duration" : 718
  },
  "status" : "passed",
  "severity" : "normal"
}, {
  "uid" : "df450b751bfd5029",
  "name" : "Negative value valid in English",
  "time" : {
    "start" : 1606272938040,
    "stop" : 1606272938892,
    "duration" : 852
  },
  "status" : "passed",
  "severity" : "normal"
}, {
  "uid" : "f02c6c106b93462",
  "name" : "Value invalid",
  "time" : {
    "start" : 1606272938897,
    "stop" : 1606272939774,
    "duration" : 877
  },
  "status" : "passed",
  "severity" : "normal"
}, {
  "uid" : "fee1feb603f10f48",
  "name" : "Positive value valid in English",
  "time" : {
    "start" : 1606272937183,
    "stop" : 1606272938036,
    "duration" : 853
  },
  "status" : "passed",
  "severity" : "normal"
} ]